{
  "log" : {
    "version" : "1.2",
    "pages" : [ ],
    "entries" : [ {
      "startedDateTime" : "2023-01-02T04:10:36.198Z",
      "request" : {
        "method" : "GET",
        "url" : "https://restful-booker.herokuapp.com/booking/7",
        "httpVersion" : "",
        "cookies" : [ ],
        "headers" : [ {
          "name" : "Accept",
          "value" : "application/json"
        } ],
        "queryString" : [ ],
        "headersSize" : 0,
        "bodySize" : 0,
        "comment" : ""
      },
      "response" : {
        "status" : 200,
        "statusText" : "",
        "httpVersion" : "",
        "cookies" : [ ],
        "headers" : [ {
          "name" : "Server",
          "value" : "Cowboy"
        }, {
          "name" : "Etag",
          "value" : "W/\"8c-ATjO8MBMt9+MHbNObhGqcuEoChg\""
        }, {
          "name" : "Connection",
          "value" : "keep-alive"
        }, {
          "name" : "#status#",
          "value" : "HTTP/1.1 200 OK"
        }, {
          "name" : "Content-Length",
          "value" : "140"
        }, {
          "name" : "Date",
          "value" : "Mon, 02 Jan 2023 04:10:35 GMT"
        }, {
          "name" : "X-Powered-By",
          "value" : "Express"
        }, {
          "name" : "Content-Type",
          "value" : "application/json; charset=utf-8"
        }, {
          "name" : "Via",
          "value" : "1.1 vegur"
        } ],
        "content" : {
          "size" : 140,
          "mimeType" : "application/json; charset=utf-8",
          "text" : "{\"firstname\":\"Eric\",\"lastname\":\"Smith\",\"totalprice\":444,\"depositpaid\":false,\"bookingdates\":{\"checkin\":\"2021-05-17\",\"checkout\":\"2021-06-05\"}}",
          "comment" : ""
        },
        "redirectURL" : "",
        "headersSize" : 194,
        "bodySize" : 140,
        "comment" : ""
      },
      "cache" : { },
      "timings" : {
        "comment" : "",
        "wait" : 0,
        "send" : 0,
        "receive" : 0,
        "dns" : -1,
        "blocked" : -1,
        "connect" : 0,
        "ssl" : -1
      },
      "comment" : "",
      "_katalonRequestInformation" : {
        "name" : "0",
        "testObjectId" : "Object Repository/Get Booking Id",
        "harId" : "0660403d-c3c1-44f4-94fe-db8011385339",
        "reportFolder" : null
      },
      "time" : 0
    } ],
    "comment" : ""
  }
}